Average, std test reward: -107.75, 8.30
Environment solved!
Performance log:  [-200.0, -200.0, -200.0, -200.0, -200.0, -200.0, -200.0, -200.0, -200.0, -200.0, -200.0, -184.95, -200.0, -200.0, -142.5, -121.15, -119.1, -118.05, -113.85, -107.75]
Saving model to models/dqn_3hidden-MountainCar-v0-413-0.0001-1.0-0.05-0.h5
min_x, max_x:  -1.2 ,  0.5313389636190362
Average reward:  (-112.85, 21.46689311474765)