Average, std test reward: -104.9, 8.89
Environment solved!
Performance log:  [-200.0, -200.0, -200.0, -200.0, -200.0, -200.0, -200.0, -200.0, -200.0, -200.0, -200.0, -200.0, -200.0, -200.0, -184.65, -200.0, -200.0, -196.5, -200.0, -200.0, -142.8, -172.3, -135.85, -133.35, -155.2, -193.35, -113.65, -112.05, -113.2, -125.2, -116.7, -104.9]
Saving model to models/dueling_dqn_3hidden-MountainCar-v0-810-0.0001-1.0-0.05-0.h5
min_x, max_x:  -1.2 ,  0.5350076173525804
Average reward:  (-115.65, 24.76544972335451)